[
  {
    "id":1,
    "name":"Trash Blonde",
    "image_url":"https://images.punkapi.com/v2/2.png",
    "price":74,
    "color":"light",
    "art":468746
  },
  {
    "id":2,
    "name":"Pilsen Lager",
    "image_url":"https://images.punkapi.com/v2/4.png",
    "price":69,
    "color":"light",
    "art":786256
  },
  {
    "id":3,
    "name":"Avery Brown Dredge",
    "image_url":"https://images.punkapi.com/v2/5.png",
    "price":78,
    "color":"dark",
    "art":728963
  },
  {
    "id":4,
    "name":"Electric India",
    "image_url":"https://images.punkapi.com/v2/6.png",
    "price":55,
    "color":"red",
    "art":102368
  },
  {
    "id":5,
    "name":"Arcade Nation",
    "image_url":"https://images.punkapi.com/v2/12.png",
    "price":55,
    "color":"red",
    "art":457893
  },
  {
    "id":6,
    "name":"Movember",
    "image_url":"https://images.punkapi.com/v2/13.png",
    "price":55,
    "color":"dark",
    "art":136987
  },
  {
    "id":7,
    "name":"Lake Lager",
    "image_url":"https://images.punkapi.com/v2/8.png",
    "price":55,
    "color":"light",
    "art":325478
  },
  {
    "id":8,
    "name":"Alpha Dog",
    "image_url":"https://images.punkapi.com/v2/14.png",
    "price":56,
    "color":"red",
    "art":586579
  },
  {
    "id":9,
    "name":"Crawling X",
    "image_url":"https://images.punkapi.com/v2/10.png",
    "price":55,
    "color":"light",
    "art":569879
  },
  {
    "id":10,
    "name":"Mixtape 8",
    "image_url":"https://images.punkapi.com/v2/15.png",
    "price":55,
    "color":"dark",
    "art":569879
  }
]